{
  "swagger" : "2.0",
  "info" : {
    "version" : "1.0",
    "title" : "Summary about the new REST service.",
    "description" : "Summary about the new REST service."
  },
  "host" : "localhost:8080",
  "basePath" : "/",
  "schemes" : [ "http" ],
  "paths" : {
    "/updatebike" : {
      "put" : {
        "summary" : "",
        "description" : "",
        "operationId" : "put-updatebike",
        "consumes" : [ "application/json", "application/xml" ],
        "produces" : [ "application/json", "application/xml" ],
        "parameters" : [ {
          "name" : "body",
          "in" : "body",
          "description" : "",
          "schema" : {
            "$ref" : "#/definitions/BikeSales"
          },
          "required" : true
        } ],
        "responses" : {
          "200" : {
            "description" : "a BikeSales to be returned",
            "schema" : {
              "$ref" : "#/definitions/BikeSales"
            }
          }
        }
      }
    }
  },
  "definitions" : {
    "Response" : {
      "type" : "object",
      "required" : [ "Estatus" ],
      "properties" : {
        "Estatus" : {
          "type" : "string"
        },
        "ProductsDetail" : {
          "type" : "array",
          "items" : {
            "$ref" : "#/definitions/ProductsDetail",
            "uniqueItems" : false
          }
        }
      }
    },
    "Brand" : {
      "type" : "object",
      "properties" : {
        "BrandID" : {
          "type" : "integer"
        },
        "BrandName" : {
          "type" : "string"
        }
      }
    },
    "Products" : {
      "type" : "object",
      "properties" : {
        "ProductName" : {
          "type" : "array",
          "items" : {
            "type" : "string",
            "uniqueItems" : false
          }
        },
        "Brand" : {
          "type" : "array",
          "items" : {
            "$ref" : "#/definitions/Brand",
            "uniqueItems" : false
          }
        },
        "Category" : {
          "type" : "array",
          "items" : {
            "$ref" : "#/definitions/Category",
            "uniqueItems" : false
          }
        },
        "ModelYear" : {
          "type" : "array",
          "items" : {
            "type" : "integer",
            "uniqueItems" : false
          }
        },
        "ListPrice" : {
          "type" : "array",
          "items" : {
            "type" : "number",
            "uniqueItems" : false
          }
        }
      }
    },
    "Category" : {
      "type" : "object",
      "properties" : {
        "CategoryID" : {
          "type" : "integer"
        },
        "CategoryName" : {
          "type" : "string"
        }
      }
    },
    "ProductsDetail" : {
      "type" : "object",
      "properties" : {
        "ProductName" : {
          "type" : "array",
          "items" : {
            "type" : "string",
            "uniqueItems" : false
          }
        },
        "Brand" : {
          "type" : "array",
          "items" : {
            "$ref" : "#/definitions/Brand",
            "uniqueItems" : false
          }
        },
        "Category" : {
          "type" : "array",
          "items" : {
            "$ref" : "#/definitions/Category",
            "uniqueItems" : false
          }
        },
        "ModelYear" : {
          "type" : "array",
          "items" : {
            "type" : "integer",
            "uniqueItems" : false
          }
        },
        "ListPrice" : {
          "type" : "array",
          "items" : {
            "type" : "number",
            "uniqueItems" : false
          }
        }
      }
    },
    "BikeSales" : {
      "type" : "object",
      "properties" : {
        "Request" : {
          "type" : "array",
          "items" : {
            "$ref" : "#/definitions/Request",
            "uniqueItems" : false
          }
        },
        "Response" : {
          "type" : "array",
          "items" : {
            "$ref" : "#/definitions/Response",
            "uniqueItems" : false
          }
        }
      }
    },
    "Request" : {
      "type" : "object",
      "required" : [ "Products" ],
      "properties" : {
        "Products" : {
          "type" : "array",
          "items" : {
            "$ref" : "#/definitions/Products",
            "uniqueItems" : false
          }
        }
      }
    }
  }
}