{"records": [{
    "jsonSchemaLocation": "/RESTPUTBike/Service Descriptors/restputbike.UpdateBike-UpdateBike.json",
    "conversionType": "linked",
    "xsdSchemaTargetNamespace": "http://www.example.org/SchemaBikesSales"
}]}